…
    ## # A tibble: 1 x 11
    ##   r.squared adj.r.squared sigma statistic   p.value    df  logLik    AIC
    ##       <dbl>         <dbl> <dbl>     <dbl>     <dbl> <int>   <dbl>  <dbl>
    ## 1    0.0342        0.0341  182.      271. 6.73e-229     5 -2.02e5 4.04e5
    ## # ... with 3 more variables: BIC <dbl>, deviance <dbl>, df.residual <int>

## Diagnostics\! \>\>\> ALL ABOUT RESIDUALS

``` r
modelr::add_residuals(nyc_airbnb, fit)  #adding residuals to my model
```

    ## # A tibble: 40,492 x 6
    ##    price stars boro  neighborhood room_type        resid
    ##    <dbl> <dbl> <fct> <chr>        <fct>            <dbl>
    ##  1    99   5   Bronx City Island  Private room      9.47
    ##  2   200  NA   Bronx City Island  Private room     NA   
    ##  3   300  NA   Bronx City Island  Entire home/apt  NA   
    ##  4   125   5   Bronx City Island  Entire home/apt  35.5 
    ##  5    69   5   Bronx City Island  Private room    -20.5 
    ##  6   125   5   Bronx City Island  Entire home/apt  35.5 
    ##  7    85   5   Bronx City Island  Entire home/apt  -4.53
    ##  8    39   4.5 Bronx Allerton     Private room    -34.5 
    ##  9    95   5   Bronx Allerton     Entire home/apt   5.47
    ## 10   125   4.5 Bronx Allerton     Entire home/apt  51.5 
    ## # ... with 40,482 more rows
…
## fitted values (predicted values)

``` r
modelr::add_predictions(nyc_airbnb, fit)
```

    ## # A tibble: 40,492 x 6
    ##    price stars boro  neighborhood room_type        pred
    ##    <dbl> <dbl> <fct> <chr>        <fct>           <dbl>
    ##  1    99   5   Bronx City Island  Private room     89.5
    ##  2   200  NA   Bronx City Island  Private room     NA  
    ##  3   300  NA   Bronx City Island  Entire home/apt  NA  
    ##  4   125   5   Bronx City Island  Entire home/apt  89.5
    ##  5    69   5   Bronx City Island  Private room     89.5
    ##  6   125   5   Bronx City Island  Entire home/apt  89.5
    ##  7    85   5   Bronx City Island  Entire home/apt  89.5
    ##  8    39   4.5 Bronx Allerton     Private room     73.5
    ##  9    95   5   Bronx Allerton     Entire home/apt  89.5
    ## 10   125   4.5 Bronx Allerton     Entire home/apt  73.5
    ## # ... with 40,482 more rows
…
